[0918/125457.814:ERROR:crash_report_database_win.cc(428)] unexpected header
[0918/125745.741:ERROR:crash_report_database_win.cc(428)] unexpected header
[0918/130044.051:ERROR:crash_report_database_win.cc(428)] unexpected header
[0918/163055.301:ERROR:crash_report_database_win.cc(428)] unexpected header
[0918/163824.953:ERROR:crash_report_database_win.cc(428)] unexpected header
[0918/165843.402:ERROR:crash_report_database_win.cc(428)] unexpected header
[0918/171124.604:ERROR:crash_report_database_win.cc(428)] unexpected header
